1Ano/2semestre/LSD/Praticas/Aula4/Parte1/simulation/qsim/FlipFlopD_Demo.msim.vcd
$comment
	File created using the following command:
		vcd file FlipFlopD_Demo.msim.vcd -direction
$end
$date
	Sun Mar 11 23:32:32 2018
$end
$version
	ModelSim Version 10.5b
$end
$timescale
	1ps
$end

$scope module FlipFlopD_vlg_vec_tst $end
$var reg 1 ! clk $end
$var reg 1 " d $end
$var reg 1 # reset $end
$var reg 1 $ set $end
$var wire 1 % q $end

$scope module i1 $end
$var wire 1 & gnd $end
$var wire 1 ' vcc $end
$var wire 1 ( unknown $end
$var tri1 1 ) devclrn $end
$var tri1 1 * devpor $end
$var tri1 1 + devoe $end
$var wire 1 , q~output_o $end
$var wire 1 - clk~input_o $end
$var wire 1 . set~input_o $end
$var wire 1 / d~input_o $end
$var wire 1 0 reset~input_o $end
$var wire 1 1 q~0_combout $end
$var wire 1 2 q~reg0_q $end
$upscope $end
$upscope $end
$enddefinitions $end
#0
$dumpvars
0!
0"
1#
0$
0%
0&
1'
x(
1)
1*
1+
0,
0-
0.
0/
10
01
02
$end
#25000
1!
1-
#40000
1"
1/
#50000
0!
0-
#60000
0#
00
11
#75000
1!
1-
12
1,
1%
#90000
0"
0/
01
#100000
0!
0-
#125000
1!
1-
02
0,
0%
#140000
1$
1.
11
#150000
0!
0-
#160000
1"
1/
#175000
1!
1-
12
1,
1%
#180000
0$
0.
#200000
0!
0-
#210000
0"
0/
01
#225000
1!
1-
02
0,
0%
#250000
0!
0-
#275000
1!
1-
#300000
0!
0-
#325000
1!
1-
#350000
0!
0-
#375000
1!
1-
#400000
0!
0-
#425000
1!
1-
#450000
0!
0-
#475000
1!
1-
#500000
0!
0-
#525000
1!
1-
#550000
0!
0-
#575000
1!
1-
#600000
0!
0-
#625000
1!
1-
#650000
0!
0-
#675000
1!
1-
#700000
0!
0-
#725000
1!
1-
#750000
0!
0-
#775000
1!
1-
#800000
0!
0-
#825000
1!
1-
#850000
0!
0-
#875000
1!
1-
#900000
0!
0-
#925000
1!
1-
#950000
0!
0-
#975000
1!
1-
